{
    "sentimentAnalysis": {
        "train_data_path": "data/sentiment_twitter/en/train.txt",
        "validation_data_path": "data/sentiment_twitter/en/val.txt",
        "sent_idxs": [1],
        "tasks": {
            "sentimentAnalysis": {
                "task_type": "classification",
                "column_idx": 0,
                "metric": "macro-f1"
            }
        }
    }
}
