{
    "UD1": {
        "train_data_path": "data/UD_Spanish-GSD/es_gsd-ud-train.conllu",
        "validation_data_path": "data/UD_Spanish-GSD/es_gsd-ud-dev.conllu",
        "word_idx": 1,
        "tasks": {
            "upos": {
                "task_type": "seq",
                "column_idx": 3
            },
            "xpos": {
                "task_type": "seq",
                "column_idx": 4
            },
            "lemma": {
                "task_type": "string2string",
                "column_idx": 2
            },
            "feats": {
                "task_type": "seq",
                "column_idx": 5
            },
            "dependency": {
                "task_type": "dependency",
                "column_idx": 6
            }
        }
    },

    "UD2": {
        "train_data_path": "data/UD_twitter/Tweebank/converted/en-ud-tweet-train.fixed.conllu",
        "validation_data_path": "data/UD_twitter/Tweebank/converted/en-ud-tweet-dev.fixed.conllu",
        "word_idx": 1,
        "tasks": {
            "upos": {
                "task_type": "seq",
                "column_idx": 3
            },
            "xpos": {
                "task_type": "seq",
                "column_idx": 4
            },
            "lemma": {
                "task_type": "string2string",
                "column_idx": 2
            },
            "feats": {
                "task_type": "seq",
                "column_idx": 5
            },
            "dependency": {
                "task_type": "dependency",
                "column_idx": 6
            }
        }
    },
    "UD3": {
        "train_data_path": "data/UD_twitter/UD_Italian-PoSTWITA/it_postwita-ud-train.conllu",
        "validation_data_path": "data/UD_twitter/UD_Italian-PoSTWITA/it_postwita-ud-dev.conllu",
        "word_idx": 1,
        "tasks": {
            "upos": {
                "task_type": "seq",
                "column_idx": 3
            },
            "xpos": {
                "task_type": "seq",
                "column_idx": 4
            },
            "lemma": {
                "task_type": "string2string",
                "column_idx": 2
            },
            "feats": {
                "task_type": "seq",
                "column_idx": 5
            },
            "dependency": {
                "task_type": "dependency",
                "column_idx": 6
            }
        }
    },
    "sentimentAnalysis_en": {
        "train_data_path": "data/sentiment_twitter/en/train.txt",
        "validation_data_path": "data/sentiment_twitter/en/val.txt",
        "sent_idxs": [1],
        "tasks": {
            "sentimentAnalysis": {
                "task_type": "classification",
                "column_idx": 0,
                "metric": "macro-f1"
            }
        }
    },
    "sentimentAnalysis_es": {
        "train_data_path": "data/sentiment_twitter/es/train.txt",
        "validation_data_path": "data/sentiment_twitter/es/val.txt",
        "sent_idxs": [1],
        "tasks": {
            "sentimentAnalysis": {
                "task_type": "classification",
                "column_idx": 0,
                "metric": "macro-f1"
            }
        }
    },
    "sentimentAnalysis_it": {
        "train_data_path": "data/sentiment_twitter/it/train.txt",
        "validation_data_path": "data/sentiment_twitter/it/val.txt",
        "sent_idxs": [1],
        "tasks": {
            "sentimentAnalysis": {
                "task_type": "classification",
                "column_idx": 0,
                "metric": "macro-f1"
            }
        }
    }
}

