{
    "UD": {
        "train_data_path": "data/UD_Spanish-GSD/es_gsd-ud-train.conllu",
        "validation_data_path": "data/UD_Spanish-GSD/es_gsd-ud-dev.conllu",
        "word_idx": 1,
        "tasks": {
            "upos": {
                "task_type": "seq",
                "column_idx": 3
            },
            "xpos": {
                "task_type": "seq",
                "column_idx": 4
            },
            "lemma": {
                "task_type": "string2string",
                "column_idx": 2
            },
            "feats": {
                "task_type": "seq",
                "column_idx": 5
            },
            "dependency": {
                "task_type": "dependency",
                "column_idx": 6
            }
        }
    },
    "sentimentAnalysis": {
        "train_data_path": "data/sentiment_twitter/es/train.txt",
        "validation_data_path": "data/sentiment_twitter/es/val.txt",
        "sent_idxs": [1],
        "tasks": {
            "sentimentAnalysis": {
                "task_type": "classification",
                "column_idx": 0,
                "metric": "macro-f1"
            }
        }
    }
}

