{
    "HATE_it": {
        "train_data_path": "/data/almanach/user/smontari/scratch/machamp/data/hate/comparable_clean_training_data/women/it/train.txt",
        "validation_data_path": "/data/almanach/user/smontari/scratch/machamp/data/hate/comparable_clean_training_data/women/it/dev.txt",
        "sent_idxs": [0],
        "tasks": {
            "hate": {
                "task_type": "classification",
                "column_idx": 1,
                "metric": "macro-f1"
            }
        }
    },
    "HATE_es": {
        "train_data_path": "/data/almanach/user/smontari/scratch/machamp/data/hate/comparable_clean_training_data/women/es/train.txt",
        "validation_data_path": "/data/almanach/user/smontari/scratch/machamp/data/hate/comparable_clean_training_data/women/es/dev.txt",
        "sent_idxs": [0],
        "tasks": {
            "hate": {
                "task_type": "classification",
                "column_idx": 1,
                "metric": "macro-f1"
            }
        }
    }
    
}
