,immigrants-en,immigrants-es,immigrants-it,women-en,women-es,women-it
xlmr-WITHsmooth_sampling-sentiment_analysis+UD_twitter+hate-en+it,,,,nan,nan,nan
xlmr-WITHsmooth_sampling-UD+hate-it+es,,,,nan,nan,nan
xlmr-WITHsmooth_sampling-UD+hate-en,0.4683,0.4708,0.5005,,,
xlmr-WITHsmooth_sampling-sentiment_analysis+hate-it+es,,,,nan,nan,nan
xlmr-WITHsmooth_sampling-sentiment_analysis+hate-en,0.5047,0.5988,0.6731,,,
xlmr-WITHsmooth_sampling-UD_twitter+hate-it+es,,,,nan,nan,nan
xlmr-WITHsmooth_sampling-UD_twitter+hate-en,0.4731,0.3997,0.5771,,,
xlmt-WITHsmooth_sampling-UD+hate-it+es,,,,nan,nan,nan
xlmt-WITHsmooth_sampling-sentiment_analysis+UD-hate-joint-it+es,,,,nan,nan,nan
xlmt-WITHsmooth_sampling-sentiment_analysis+hate-it+es,nan,nan,nan,nan,nan,nan
xlmt-WITHsmooth_sampling-UD_twitter+hate-it+es,,,,nan,nan,nan
xlmr-sentiment_analysis+UD_twitter+hate-es,0.6302,0.7103,0.6044,,,
xlmr-sentiment_analysis+UD_twitter+hate-en,0.498,0.5767,0.6473,,,
xlmr-UD+hate-es,0.5755,0.7165,0.5671,,,
xlmr-UD+hate-en,0.4826,0.4294,0.4644,,,
xlmr-sentiment_analysis+UD-hate-joint-es,nan,nan,nan,,,
xlmr-sentiment_analysis+UD-hate-joint-en,nan,nan,nan,,,
xlmr-sentiment_analysis+hate-en+it,0.4978,0.5774,0.7481,,,
xlmr-sentiment_analysis+hate-it,0.6482,0.5833,0.7572,0.4443,0.533,0.8343
xlmr-sentiment_analysis+hate-en+es,0.5251,0.7534,0.7063,0.4914,0.7328,0.3264
xlmr-sentiment_analysis+hate-es,0.6098,0.7221,0.6693,0.6246,0.7244,0.3056
xlmr-sentiment_analysis+hate-en,0.4996,0.5779,0.6421,0.4869,0.5697,0.4399
xlmr-sentiment_analysis+hate-it+es,0.6506,0.7503,0.7519,,,
xlmr-UD-hate-joint-it+es,,,,nan,nan,nan
xlmr-sentiment_analysis+UD+UD_twitter+hate-it+es,nan,nan,nan,nan,nan,nan
xlmr-sentiment_analysis+UD+UD_twitter+hate-en+it,nan,nan,nan,nan,nan,nan
xlmr-sentiment_analysis+UD+UD_twitter+hate-it,nan,nan,nan,nan,nan,nan
xlmr-sentiment_analysis+UD+UD_twitter+hate-en+es,nan,nan,nan,nan,nan,nan
xlmr-sentiment_analysis+UD+UD_twitter+hate-es,nan,nan,nan,nan,nan,nan
xlmr-sentiment_analysis+UD+UD_twitter+hate-en,nan,nan,nan,nan,nan,nan
xlmr-sentiment_analysis+UD+hate-es,0.5758,0.7286,0.6297,,,
xlmr-sentiment_analysis+UD+hate-en,0.4857,0.5945,0.649,,,
xlmr-UD_twitter+hate-en,0.4823,0.4152,0.4859,,,
xlmr-UD_twitter-hate-joint-en,nan,nan,nan,,,
xlmr-sentiment_analysis+UD_twitter-hate-joint-it,nan,nan,nan,,,
xlmr-sentiment_analysis+UD_twitter-hate-joint-es,nan,nan,nan,,,
xlmr-sentiment_analysis+UD_twitter-hate-joint-en,nan,nan,nan,,,
xlmr-hate-it+es,nan,nan,nan,nan,nan,nan
xlmr-hate-en+it,0.5287,0.6078,0.7646,nan,nan,nan
xlmr-hate-it,0.5648,0.5465,0.7492,0.4596,0.5119,0.8137
xlmr-hate-en+es,0.5794,0.7635,0.6447,nan,nan,nan
xlmr-hate-es,0.5103,0.6365,0.5472,0.5128,0.5914,0.3895
xlmr-hate-en,0.5604,0.5664,0.5932,0.4672,0.5646,0.4615
mbert-WITHsmooth_sampling-UD+hate-it+es,0.6066,0.7347,0.7507,0.5264,0.6977,0.8368
mbert-WITHsmooth_sampling-UD+hate-en+it,0.4497,0.5841,0.7394,0.4631,0.5391,0.835
mbert-WITHsmooth_sampling-UD+hate-it,0.5013,0.5155,0.7546,0.4819,0.4953,0.8465
mbert-WITHsmooth_sampling-UD+hate-en+es,0.4783,0.731,0.665,0.4803,0.6845,0.3481
mbert-WITHsmooth_sampling-UD+hate-es,0.4403,0.7182,0.6942,0.5607,0.6842,0.3857
mbert-WITHsmooth_sampling-UD+hate-en,0.4642,0.5125,0.486,0.4691,0.497,0.3943
mbert-WITHsmooth_sampling-sentiment_analysis+UD-hate-joint-en,0.4527,0.6142,0.6572,,,
mbert-WITHsmooth_sampling-sentiment_analysis+hate-it+es,0.6494,0.7492,0.7699,0.5697,0.7131,0.8492
mbert-WITHsmooth_sampling-sentiment_analysis+hate-en+it,0.4475,0.5784,0.7713,0.4886,0.6138,0.8481
mbert-WITHsmooth_sampling-sentiment_analysis+hate-it,0.5696,0.5582,0.7708,0.3851,0.5291,0.8541
mbert-WITHsmooth_sampling-sentiment_analysis+hate-en+es,0.5035,0.7436,0.6813,0.5324,0.7055,0.3144
mbert-WITHsmooth_sampling-sentiment_analysis+hate-es,0.6456,0.7392,0.6629,0.6254,0.7027,0.3785
mbert-WITHsmooth_sampling-sentiment_analysis+hate-en,0.4863,0.5929,0.6412,0.4756,0.5798,0.3597
mbert-WITHsmooth_sampling-UD-hate-joint-en,0.4485,0.5215,0.5484,,,
mbert-WITHsmooth_sampling-UD_twitter+hate-it+es,0.5995,0.7316,0.7465,0.5688,0.6924,0.8355
mbert-WITHsmooth_sampling-UD_twitter+hate-en+it,0.4842,0.548,0.7615,0.4796,0.5335,0.841
mbert-WITHsmooth_sampling-UD_twitter+hate-it,0.5644,0.5867,0.7517,0.4284,0.5262,0.8255
mbert-WITHsmooth_sampling-UD_twitter+hate-en+es,0.5104,0.7547,0.6754,0.49,0.7005,0.3532
mbert-WITHsmooth_sampling-UD_twitter+hate-es,0.6019,0.7445,0.6488,0.5657,0.7079,0.4177
mbert-WITHsmooth_sampling-UD_twitter+hate-en,0.4733,0.5092,0.6174,0.485,0.4732,0.3804
mbert-WITHsmooth_sampling-UD_twitter-hate-joint-en,0.4669,0.545,0.5954,,,
mbert-WITHsmooth_sampling-sentiment_analysis-hate-joint-en+it,0.4746,0.6066,0.7724,,,
mbert-WITHsmooth_sampling-sentiment_analysis-hate-joint-it,0.5778,0.5665,0.7603,,,
mbert-WITHsmooth_sampling-sentiment_analysis-hate-joint-en+es,0.5148,0.7493,0.6883,,,
mbert-WITHsmooth_sampling-sentiment_analysis-hate-joint-es,0.6333,0.7387,0.6561,,,
mbert-WITHsmooth_sampling-sentiment_analysis-hate-joint-it+es,0.6438,0.7306,0.7626,,,
mbert-WITHsmooth_sampling-sentiment_analysis-hate-joint-en,0.522,0.6138,0.6607,,,
mbert-sentiment_analysis+UD_twitter+hate-it+es,0.6122,0.7261,0.7413,0.5399,0.6723,0.8346
mbert-sentiment_analysis+UD_twitter+hate-en+it,0.4535,0.5886,0.7544,0.4646,0.5428,0.8427
mbert-sentiment_analysis+UD_twitter+hate-it,0.5761,0.5849,0.7428,0.4033,0.4967,0.8525
mbert-sentiment_analysis+UD_twitter+hate-en+es,0.4924,0.7382,0.6931,0.4696,0.6981,0.3007
mbert-sentiment_analysis+UD_twitter+hate-es,0.6183,0.7321,0.6817,0.5916,0.7113,0.3774
mbert-sentiment_analysis+UD_twitter+hate-en,0.4508,0.61,0.65,0.4591,0.5587,0.3083
mbert-UD+hate-it+es,0.6292,0.7337,0.7531,0.4969,0.6911,0.8319
mbert-UD+hate-en+it,0.4585,0.5782,0.7693,0.4694,0.5843,0.8395
mbert-UD+hate-it,0.5224,0.5457,0.7517,0.519,0.5308,0.8409
mbert-UD+hate-en+es,0.4984,0.7219,0.6616,0.4846,0.6893,0.3092
mbert-UD+hate-es,0.5097,0.7285,0.6594,0.4926,0.7037,0.3451
mbert-UD+hate-en,0.4866,0.5509,0.5733,0.4342,0.4899,0.3522
mbert-sentiment_analysis+UD-hate-joint-en,0.4216,0.5879,0.6671,,,
mbert-sentiment_analysis+hate-it+es,0.6188,0.7271,0.7586,0.5345,0.7144,0.8406
mbert-sentiment_analysis+hate-en+it,0.4675,0.5933,0.7913,0.4887,0.6016,0.8341
mbert-sentiment_analysis+hate-it,0.6008,0.5719,0.7696,0.4231,0.5038,0.8435
mbert-sentiment_analysis+hate-en+es,0.487,0.742,0.7005,0.4692,0.7003,0.324
mbert-sentiment_analysis+hate-es,0.6298,0.7248,0.6701,0.6237,0.6987,0.3669
mbert-sentiment_analysis+hate-en,0.4806,0.5923,0.6804,0.4695,0.5604,0.3754
mbert-UD-hate-joint-en,0.4749,0.4817,0.5188,,,
mbert-sentiment_analysis+UD+UD_twitter+hate-it+es,nan,nan,nan,nan,nan,nan
mbert-sentiment_analysis+UD+UD_twitter+hate-en+it,nan,nan,nan,nan,nan,nan
mbert-sentiment_analysis+UD+UD_twitter+hate-it,nan,nan,nan,nan,nan,nan
mbert-sentiment_analysis+UD+UD_twitter+hate-en+es,nan,nan,nan,nan,nan,nan
mbert-sentiment_analysis+UD+UD_twitter+hate-es,nan,nan,nan,nan,nan,nan
mbert-sentiment_analysis+UD+UD_twitter+hate-en,nan,nan,nan,nan,nan,nan
mbert-sentiment_analysis+UD+hate-it+es,0.6386,0.7311,0.7682,0.5463,0.6829,0.843
mbert-sentiment_analysis+UD+hate-en+it,0.4807,0.6061,0.7614,0.4658,0.4743,0.8441
mbert-sentiment_analysis+UD+hate-it,0.5892,0.5697,0.7502,0.4412,0.4779,0.8437
mbert-sentiment_analysis+UD+hate-en+es,0.4766,0.7309,0.7123,0.4384,0.704,0.311
mbert-sentiment_analysis+UD+hate-es,0.6062,0.7146,0.6843,0.612,0.6946,0.2929
mbert-sentiment_analysis+UD+hate-en,0.4525,0.5985,0.6577,0.4578,0.5484,0.3497
mbert-UD_twitter+hate-it+es,0.6286,0.7286,0.7418,0.5259,0.7079,0.8422
mbert-UD_twitter+hate-en+it,0.4639,0.6134,0.7679,0.481,0.5534,0.8441
mbert-UD_twitter+hate-it,0.5703,0.5802,0.7527,0.4105,0.5223,0.829
mbert-UD_twitter+hate-en+es,0.4922,0.739,0.6908,0.4963,0.7102,0.3505
mbert-UD_twitter+hate-es,0.571,0.7354,0.6346,0.5926,0.6999,0.3852
mbert-UD_twitter+hate-en,0.4857,0.5467,0.5642,0.4662,0.4967,0.3607
mbert-UD_twitter-hate-joint-es,0.5884,0.7298,0.5344,,,
mbert-UD_twitter-hate-joint-en,0.4695,0.5569,0.5803,,,
mbert-sentiment_analysis+UD_twitter-hate-joint-es,0.6102,0.7291,0.6415,,,
mbert-sentiment_analysis+UD_twitter-hate-joint-en,0.4722,0.6049,0.6386,,,
mbert-sentiment_analysis-hate-joint-en+it,0.4786,0.5994,0.7716,,,
mbert-sentiment_analysis-hate-joint-it,0.6231,0.5749,0.7729,,,
mbert-sentiment_analysis-hate-joint-es,0.6133,0.7382,0.6403,0.6466,0.7288,0.333
mbert-sentiment_analysis-hate-joint-en+es,0.5431,0.7308,0.6876,,,
mbert-sentiment_analysis-hate-joint-en,0.4435,0.5938,0.6394,0.4776,0.6152,0.2971
mbert-sentiment_analysis-hate-joint-it+es,0.6197,0.7545,0.7567,,,
mbert-hate-it+es,nan,nan,nan,nan,nan,nan
mbert-hate-en+it,0.5313,0.616,0.7748,0.4967,0.6034,0.8421
mbert-hate-it,0.5345,0.5485,0.766,0.4349,0.5204,0.8511
mbert-hate-en+es,0.5392,0.7385,0.6875,0.508,0.7208,0.3468
mbert-hate-es,0.6437,0.7265,0.6647,0.6376,0.6835,0.369
mbert-hate-en,0.503,0.5911,0.6456,0.4951,0.6024,0.3997
xlmt-sentiment_analysis+UD_twitter+hate-it,nan,nan,nan,,,
xlmt-sentiment_analysis+UD-hate-joint-it,nan,nan,nan,,,
xlmt-sentiment_analysis+UD-hate-joint-es,nan,nan,nan,,,
xlmt-sentiment_analysis+UD-hate-joint-en,nan,nan,nan,,,
xlmt-sentiment_analysis+hate-it,nan,nan,nan,,,
xlmt-sentiment_analysis+UD+UD_twitter+hate-it+es,nan,nan,nan,nan,nan,nan
xlmt-sentiment_analysis+UD+UD_twitter+hate-en+it,nan,nan,nan,nan,nan,nan
xlmt-sentiment_analysis+UD+UD_twitter+hate-it,nan,nan,nan,nan,nan,nan
xlmt-sentiment_analysis+UD+UD_twitter+hate-en+es,nan,nan,nan,nan,nan,nan
xlmt-sentiment_analysis+UD+UD_twitter+hate-es,nan,nan,nan,nan,nan,nan
xlmt-sentiment_analysis+UD+UD_twitter+hate-en,nan,nan,nan,nan,nan,nan
xlmt-sentiment_analysis+UD+hate-it,nan,nan,nan,,,
xlmt-sentiment_analysis+UD_twitter-hate-joint-it,nan,nan,nan,,,
xlmt-sentiment_analysis+UD_twitter-hate-joint-es,nan,nan,nan,,,
xlmt-sentiment_analysis+UD_twitter-hate-joint-en,nan,nan,nan,,,
